<svg width="27" height="27" viewBox="0 0 27 27" fill="none" xmlns="http://www.w3.org/2000/svg">
<path d="M21.3333 7.77398C20.4433 7.45944 19.6932 6.84039 19.2155 6.02624C18.7378 5.2121 18.5634 4.25529 18.7229 3.32493C18.8825 2.39458 19.3658 1.55059 20.0875 0.942152C20.8092 0.333713 21.7227 0 22.6667 0C23.6106 0 24.5241 0.333713 25.2458 0.942152C25.9675 1.55059 26.4508 2.39458 26.6104 3.32493C26.77 4.25529 26.5955 5.2121 26.1178 6.02624C25.6401 6.84039 24.89 7.45944 24 7.77398V20.0007C24 20.3543 23.8595 20.6934 23.6095 20.9435C23.3594 21.1935 23.0203 21.334 22.6667 21.334H16.9067L13.04 26.1673C12.9151 26.323 12.7568 26.4487 12.5767 26.5351C12.3967 26.6214 12.1996 26.6663 12 26.6663C11.8004 26.6663 11.6033 26.6214 11.4232 26.5351C11.2432 26.4487 11.0849 26.323 10.96 26.1673L7.09333 21.334H1.33333C0.979711 21.334 0.640573 21.1935 0.390524 20.9435C0.140476 20.6934 0 20.3543 0 20.0007V4.00065C0 3.64703 0.140476 3.30789 0.390524 3.05784C0.640573 2.80779 0.979711 2.66732 1.33333 2.66732H16C16.3536 2.66732 16.6928 2.80779 16.9428 3.05784C17.1929 3.30789 17.3333 3.64703 17.3333 4.00065C17.3333 4.35427 17.1929 4.69341 16.9428 4.94346C16.6928 5.19351 16.3536 5.33398 16 5.33398H2.66667V18.6673H7.73333C7.93306 18.6674 8.13022 18.7124 8.31023 18.799C8.49023 18.8855 8.6485 19.0114 8.77333 19.1673L12 23.2007L15.2267 19.1687C15.3514 19.0125 15.5096 18.8864 15.6896 18.7996C15.8696 18.7128 16.0668 18.6676 16.2667 18.6673H21.3333V7.77398ZM22.6667 5.33398C23.0203 5.33398 23.3594 5.19351 23.6095 4.94346C23.8595 4.69341 24 4.35427 24 4.00065C24 3.64703 23.8595 3.30789 23.6095 3.05784C23.3594 2.80779 23.0203 2.66732 22.6667 2.66732C22.313 2.66732 21.9739 2.80779 21.7239 3.05784C21.4738 3.30789 21.3333 3.64703 21.3333 4.00065C21.3333 4.35427 21.4738 4.69341 21.7239 4.94346C21.9739 5.19351 22.313 5.33398 22.6667 5.33398ZM6.66667 10.6673C6.31304 10.6673 5.97391 10.5268 5.72386 10.2768C5.47381 10.0267 5.33333 9.68761 5.33333 9.33398C5.33333 8.98036 5.47381 8.64122 5.72386 8.39118C5.97391 8.14113 6.31304 8.00065 6.66667 8.00065H17.3333C17.687 8.00065 18.0261 8.14113 18.2761 8.39118C18.5262 8.64122 18.6667 8.98036 18.6667 9.33398C18.6667 9.68761 18.5262 10.0267 18.2761 10.2768C18.0261 10.5268 17.687 10.6673 17.3333 10.6673H6.66667ZM6.66667 16.0007C6.31304 16.0007 5.97391 15.8602 5.72386 15.6101C5.47381 15.3601 5.33333 15.0209 5.33333 14.6673C5.33333 14.3137 5.47381 13.9746 5.72386 13.7245C5.97391 13.4745 6.31304 13.334 6.66667 13.334H13.3333C13.687 13.334 14.0261 13.4745 14.2761 13.7245C14.5262 13.9746 14.6667 14.3137 14.6667 14.6673C14.6667 15.0209 14.5262 15.3601 14.2761 15.6101C14.0261 15.8602 13.687 16.0007 13.3333 16.0007H6.66667Z" fill="#FF6C6C"/>
</svg>
