<svg width="27" height="22" viewBox="0 0 27 22" fill="none" xmlns="http://www.w3.org/2000/svg">
<path d="M12 13.8853L7.05735 8.94266C6.81447 8.69119 6.68008 8.35439 6.68311 8.0048C6.68615 7.6552 6.82638 7.32078 7.07359 7.07357C7.3208 6.82636 7.65522 6.68614 8.00481 6.6831C8.35441 6.68006 8.69121 6.81445 8.94268 7.05733L14.276 12.3907C14.5261 12.6407 14.6666 12.9797 14.6667 13.3333V20C14.6667 20.3536 14.5262 20.6928 14.2762 20.9428C14.0261 21.1929 13.687 21.3333 13.3333 21.3333H3.35468C3.13557 21.3333 2.91985 21.2793 2.72659 21.176C2.53334 21.0727 2.3685 20.9234 2.24668 20.7413C0.778504 18.55 -0.00364197 15.971 1.27497e-05 13.3333C1.27497e-05 5.96933 5.96935 0 13.3333 0C20.6973 0 26.6667 5.96933 26.6667 13.3333C26.6703 15.971 25.8882 18.55 24.42 20.7413C24.2983 20.9233 24.1337 21.0724 23.9407 21.1757C23.7477 21.2789 23.5322 21.3331 23.3133 21.3333H18.6667C18.3131 21.3333 17.9739 21.1929 17.7239 20.9428C17.4738 20.6928 17.3333 20.3536 17.3333 20C17.3333 19.6464 17.4738 19.3072 17.7239 19.0572C17.9739 18.8071 18.3131 18.6667 18.6667 18.6667H22.5733C23.5086 17.0451 24.0006 15.2059 24 13.3339C23.9994 11.4619 23.5061 9.62305 22.5698 8.00207C21.6334 6.3811 20.2869 5.03509 18.6656 4.09928C17.0443 3.16347 15.2053 2.67082 13.3333 2.67082C11.4614 2.67082 9.62234 3.16347 8.00105 4.09928C6.37976 5.03509 5.0333 6.3811 4.09694 8.00207C3.16058 9.62305 2.66731 11.4619 2.66668 13.3339C2.66605 15.2059 3.15808 17.0451 4.09335 18.6667H12V13.8853ZM18.276 10.276C18.0245 10.5189 17.6877 10.6533 17.3381 10.6502C16.9885 10.6472 16.6541 10.507 16.4069 10.2598C16.1597 10.0125 16.0195 9.67813 16.0164 9.32853C16.0134 8.97894 16.1478 8.64213 16.3907 8.39066L17.724 7.05733C17.9755 6.81445 18.3123 6.68006 18.6619 6.6831C19.0115 6.68614 19.3459 6.82636 19.5931 7.07357C19.8403 7.32078 19.9805 7.6552 19.9836 8.0048C19.9866 8.35439 19.8522 8.69119 19.6093 8.94266L18.276 10.276ZM6.00001 14.6667C5.64639 14.6667 5.30725 14.5262 5.0572 14.2761C4.80716 14.0261 4.66668 13.687 4.66668 13.3333C4.66668 12.9797 4.80716 12.6406 5.0572 12.3905C5.30725 12.1405 5.64639 12 6.00001 12H7.33335C7.68697 12 8.02611 12.1405 8.27615 12.3905C8.5262 12.6406 8.66668 12.9797 8.66668 13.3333C8.66668 13.687 8.5262 14.0261 8.27615 14.2761C8.02611 14.5262 7.68697 14.6667 7.33335 14.6667H6.00001ZM19.3333 14.6667C18.9797 14.6667 18.6406 14.5262 18.3905 14.2761C18.1405 14.0261 18 13.687 18 13.3333C18 12.9797 18.1405 12.6406 18.3905 12.3905C18.6406 12.1405 18.9797 12 19.3333 12H20.6667C21.0203 12 21.3594 12.1405 21.6095 12.3905C21.8595 12.6406 22 12.9797 22 13.3333C22 13.687 21.8595 14.0261 21.6095 14.2761C21.3594 14.5262 21.0203 14.6667 20.6667 14.6667H19.3333ZM12 5.33333C12 4.97971 12.1405 4.64057 12.3905 4.39052C12.6406 4.14048 12.9797 4 13.3333 4C13.687 4 14.0261 4.14048 14.2762 4.39052C14.5262 4.64057 14.6667 4.97971 14.6667 5.33333V6.66667C14.6667 7.02029 14.5262 7.35943 14.2762 7.60947C14.0261 7.85952 13.687 8 13.3333 8C12.9797 8 12.6406 7.85952 12.3905 7.60947C12.1405 7.35943 12 7.02029 12 6.66667V5.33333Z" fill="#BBC5D0"/>
</svg>
