<svg width="20" height="20" viewBox="0 0 20 20" fill="none" xmlns="http://www.w3.org/2000/svg">
<path fill-rule="evenodd" clip-rule="evenodd" d="M10 19C14.9706 19 19 14.9706 19 10C19 5.02944 14.9706 1 10 1C5.02944 1 1 5.02944 1 10C1 14.9706 5.02944 19 10 19ZM10 20C15.5228 20 20 15.5228 20 10C20 4.47715 15.5228 0 10 0C4.47715 0 0 4.47715 0 10C0 15.5228 4.47715 20 10 20Z" fill="#757C85"/>
<circle cx="6.5" cy="7.5" r="1.5" fill="#757C85"/>
<circle cx="13.5" cy="7.5" r="1.5" fill="#757C85"/>
<path fill-rule="evenodd" clip-rule="evenodd" d="M7.5 12C7.5 13.3807 8.61929 14.5 10 14.5C11.3807 14.5 12.5 13.3807 12.5 12H13.5C13.5 13.933 11.933 15.5 10 15.5C8.067 15.5 6.5 13.933 6.5 12H7.5Z" fill="#757C85"/>
</svg>
