<svg width="24" height="24" viewBox="0 0 24 24" fill="none" xmlns="http://www.w3.org/2000/svg">
<path d="M2.93087 14.6667H8.2282C8.50402 14.6666 8.77306 14.7522 8.99825 14.9114C9.22344 15.0707 9.39369 15.2959 9.48553 15.556C9.66975 16.0757 10.0104 16.5255 10.4607 16.8436C10.9111 17.1617 11.4489 17.3326 12.0002 17.3326C12.5515 17.3326 13.0894 17.1617 13.5397 16.8436C13.99 16.5255 14.3306 16.0757 14.5149 15.556C14.6068 15.2957 14.7772 15.0704 15.0027 14.9111C15.2281 14.7518 15.4975 14.6664 15.7735 14.6667H18.0002C18.3538 14.6667 18.693 14.8071 18.943 15.0572C19.1931 15.3072 19.3335 15.6464 19.3335 16C19.3335 16.3536 19.1931 16.6928 18.943 16.9428C18.693 17.1929 18.3538 17.3333 18.0002 17.3333H16.6202C16.1523 18.1447 15.4789 18.8185 14.6679 19.2869C13.8569 19.7554 12.9368 20.0021 12.0002 20.0021C11.0636 20.0021 10.1435 19.7554 9.3325 19.2869C8.52148 18.8185 7.84814 18.1447 7.3802 17.3333H1.33353C1.13821 17.3334 0.94526 17.2905 0.768337 17.2077C0.591414 17.1249 0.434837 17.0043 0.309679 16.8543C0.184521 16.7044 0.0938402 16.5288 0.0440486 16.3399C-0.005743 16.151 -0.0134289 15.9535 0.0215346 15.7613L2.6882 1.09467C2.7441 0.787451 2.90604 0.509597 3.14581 0.30955C3.38557 0.109503 3.68794 -4.71122e-05 4.0002 1.5199e-08H20.0002C20.3125 -4.71122e-05 20.6148 0.109503 20.8546 0.30955C21.0944 0.509597 21.2563 0.787451 21.3122 1.09467L23.9789 15.7613L24.0002 16V22.6667C24.0002 23.0203 23.8597 23.3594 23.6097 23.6095C23.3596 23.8595 23.0205 24 22.6669 24H1.33353C0.979913 24 0.640774 23.8595 0.390725 23.6095C0.140677 23.3594 0.000201216 23.0203 0.000201216 22.6667V20C0.000201216 19.6464 0.140677 19.3072 0.390725 19.0572C0.640774 18.8071 0.979913 18.6667 1.33353 18.6667C1.68716 18.6667 2.02629 18.8071 2.27634 19.0572C2.52639 19.3072 2.66687 19.6464 2.66687 20V21.3333H21.3335V16.12L18.8869 2.66667H5.11353L2.93087 14.6667Z" fill="#BBC5D0"/>
</svg>
