<svg width="27" height="27" viewBox="0 0 27 27" fill="none" xmlns="http://www.w3.org/2000/svg">
<path d="M15.0999 18.3667C13.8752 18.7967 12.5357 18.7654 11.3324 18.2785C10.1291 17.7917 9.1447 16.8827 8.56366 15.7219C7.98263 14.5612 7.84485 13.2284 8.17617 11.9733C8.50748 10.7182 9.28514 9.6271 10.3634 8.90438C11.4416 8.18166 12.7464 7.87698 14.0332 8.04744C15.3201 8.21791 16.5005 8.85182 17.3534 9.83036C18.2063 10.8089 18.673 12.0649 18.6661 13.3629C18.6592 14.6609 18.1792 15.9119 17.3159 16.8813L19.0679 19.3387C20.096 19.2173 21.1382 19.3248 22.1199 19.6533L23.5306 17.3C20.6599 15.056 20.6106 11.636 23.5306 9.36667L22.1306 7.03333C18.5333 8.33067 15.3626 6.48533 14.7679 2.66667H11.9013C11.3066 6.444 8.16928 8.35067 4.53328 7.03467L3.13328 9.368C6.00528 11.6107 6.05328 15.0307 3.13461 17.3013L4.53461 19.6347C8.13328 18.336 11.3039 20.1813 11.8986 24H15.9999C16.3536 24 16.6927 24.1405 16.9428 24.3905C17.1928 24.6406 17.3333 24.9797 17.3333 25.3333C17.3333 25.687 17.1928 26.0261 16.9428 26.2761C16.6927 26.5262 16.3536 26.6667 15.9999 26.6667H10.6666C10.313 26.6667 9.97385 26.5262 9.7238 26.2761C9.47375 26.0261 9.33328 25.687 9.33328 25.3333C9.33328 22.208 7.33328 21.044 4.63461 22.5067C4.33238 22.6702 3.97868 22.7107 3.64729 22.6198C3.31589 22.5289 3.0324 22.3135 2.85594 22.0187L0.189276 17.572C0.096861 17.4176 0.036655 17.2461 0.0122847 17.0678C-0.0120857 16.8895 -0.000115708 16.7081 0.047473 16.5346C0.0950617 16.3611 0.177284 16.199 0.289189 16.058C0.401093 15.9171 0.540363 15.8003 0.698609 15.7147C3.30661 14.3013 3.26794 12.344 0.698609 10.952C0.540363 10.8663 0.401093 10.7495 0.289189 10.6086C0.177284 10.4677 0.0950617 10.3056 0.047473 10.1321C-0.000115708 9.95852 -0.0120857 9.77715 0.0122847 9.59886C0.036655 9.42057 0.096861 9.24907 0.189276 9.09467L2.85594 4.648C3.03262 4.35335 3.3162 4.13827 3.64758 4.0476C3.97895 3.95694 4.33254 3.99768 4.63461 4.16133C7.36528 5.64 9.33328 4.424 9.33328 1.33333C9.33328 0.979711 9.47375 0.640573 9.7238 0.390524C9.97385 0.140476 10.313 0 10.6666 0H15.9999C16.3536 0 16.6927 0.140476 16.9428 0.390524C17.1928 0.640573 17.3333 0.979711 17.3333 1.33333C17.3333 4.45867 19.3333 5.62267 22.0319 4.16C22.3342 3.99646 22.6879 3.95592 23.0193 4.04684C23.3507 4.13777 23.6342 4.35313 23.8106 4.648L26.4773 9.09467C26.5697 9.24907 26.6299 9.42057 26.6543 9.59886C26.6786 9.77715 26.6667 9.95852 26.6191 10.1321C26.5715 10.3056 26.4893 10.4677 26.3774 10.6086C26.2655 10.7495 26.1262 10.8663 25.9679 10.952C23.3599 12.3653 23.3986 14.3227 25.9679 15.7147C26.1262 15.8003 26.2655 15.9171 26.3774 16.058C26.4893 16.199 26.5715 16.3611 26.6191 16.5346C26.6667 16.7081 26.6786 16.8895 26.6543 17.0678C26.6299 17.2461 26.5697 17.4176 26.4773 17.572L23.8106 22.0187C23.6339 22.3133 23.3503 22.5284 23.019 22.6191C22.6876 22.7097 22.334 22.669 22.0319 22.5053C21.0533 21.976 19.8133 21.8053 18.8906 22.096C18.622 22.1807 18.3335 22.1782 18.0665 22.0889C17.7994 21.9996 17.5675 21.8279 17.4039 21.5987L15.0999 18.3667V18.3667ZM13.3333 16C14.0405 16 14.7188 15.719 15.2189 15.219C15.719 14.7189 15.9999 14.0406 15.9999 13.3333C15.9999 12.6261 15.719 11.9478 15.2189 11.4477C14.7188 10.9476 14.0405 10.6667 13.3333 10.6667C12.626 10.6667 11.9478 10.9476 11.4477 11.4477C10.9476 11.9478 10.6666 12.6261 10.6666 13.3333C10.6666 14.0406 10.9476 14.7189 11.4477 15.219C11.9478 15.719 12.626 16 13.3333 16Z" fill="#BBC5D0"/>
</svg>
