{
    "moods": {
     "0": "Sad",
     "1": "Meh",
     "2": "Happy"
    },
    "topics": {
     "A": "Branch",
     "B": "Website",
     "C": "App",
     "D": "Fraud",
     "E": "Racism",
     "F": "Refunds",
     "G": "Deliveries"
    },
    "posts": [
     {
      "id": "EyPxHSo",
      "replyToId": "EyyxofT",
      "authorPic": "https://randomuser.me/api/portraits/thumb/men/27.jpg",
      "text": "Nibh sagittis class etiam adipiscing laoreet fermentum, at morbi sapien morbi etiam vulputate, magna ad curabitur iaculis massa.",
      "date": "2020-07-24T09:41:22.000+0000",
      "mood": 0,
      "topic": "D",
      "authorName": "Amy Lewis"
     },
     {
      "id": "EyPyoSP",
      "replyToId": "EHrfSyo",
      "authorPic": "https://randomuser.me/api/portraits/thumb/men/81.jpg",
      "text": "Taciti cursus porta etiam mi porttitor, purus quis lobortis vulputate.",
      "date": "2020-07-23T10:06:07.000+0000",
      "mood": 0,
      "topic": "C",
      "authorName": "Piers Butler"
     },
     {
      "id": "EyrSryr",
      "replyToId": "EHrfSyo",
      "authorPic": "https://randomuser.me/api/portraits/thumb/men/44.jpg",
      "text": "Ut suspendisse vestibulum habitant vulputate eleifend, luctus cras sapien arcu.",
      "date": "2020-07-22T18:38:25.000+0000",
      "mood": null,
      "topic": null,
      "authorName": "Nicholas Jones"
     },
     {
      "id": "EyrETHx",
      "replyToId": "EyyHyTS",
      "authorPic": "https://randomuser.me/api/portraits/thumb/men/27.jpg",
      "text": "Cras nullam turpis platea hendrerit amet, senectus eros consectetur ipsum.",
      "date": "2020-07-21T17:05:02.000+0000",
      "mood": 0,
      "topic": null,
      "authorName": "Amy Lewis"
     },
     {
      "id": "EyroyyH",
      "replyToId": "EyySxxx",
      "authorPic": "https://randomuser.me/api/portraits/thumb/men/27.jpg",
      "text": "Vestibulum quisque phasellus sem per urna sapien, nunc platea tempor turpis fusce. Senectus porta mollis gravida, accumsan tristique.",
      "date": "2020-07-21T13:04:05.000+0000",
      "mood": 2,
      "topic": "D",
      "authorName": "Amy Lewis"
     },
     {
      "id": "EyroyHT",
      "replyToId": "EHrfSyo",
      "authorPic": "https://randomuser.me/api/portraits/thumb/men/10.jpg",
      "text": "Duis conubia nulla odio auctor tincidunt, quisque lectus luctus iaculis.",
      "date": "2020-07-21T13:03:37.000+0000",
      "mood": 2,
      "topic": "A",
      "authorName": "Kevin Sutherland"
     },
     {
      "id": "EyrPrEx",
      "replyToId": "EyHTyES",
      "authorPic": "https://randomuser.me/api/portraits/thumb/women/30.jpg",
      "text": "Et nisl pulvinar congue metus ultrices, pulvinar feugiat sapien laoreet.",
      "date": "2020-07-21T11:43:18.000+0000",
      "mood": 1,
      "topic": "G",
      "authorName": "Bella Hudson"
     },
     {
      "id": "EyySxxx",
      "replyToId": "EHrfSyo",
      "authorPic": "https://randomuser.me/api/portraits/thumb/men/75.jpg",
      "text": "Diam sed ultrices libero accumsan posuere odio, donec ipsum elit velit venenatis integer, viverra taciti fermentum nostra semper.",
      "date": "2020-07-21T09:22:57.000+0000",
      "mood": 2,
      "topic": "F",
      "authorName": "Benjamin Taylor"
     },
     {
      "id": "EyyTPfr",
      "replyToId": "EyHTyES",
      "authorPic": "https://randomuser.me/api/portraits/thumb/men/27.jpg",
      "text": "Aenean libero cubilia suscipit risus volutpat eget pellentesque massa nostra, litora bibendum mollis odio euismod fames odio erat.",
      "date": "2020-07-21T07:48:57.000+0000",
      "mood": 0,
      "topic": "D",
      "authorName": "Amy Lewis"
     },
     {
      "id": "EyyxofT",
      "replyToId": "EHrfSyo",
      "authorPic": "https://randomuser.me/api/portraits/thumb/men/90.jpg",
      "text": "Lacinia in sociosqu condimentum lobortis in aliquam cubilia laoreet rutrum, amet nisl fusce ad etiam vulputate ad fusce.",
      "date": "2020-07-20T16:26:20.000+0000",
      "mood": null,
      "topic": "B",
      "authorName": "Harry Marshall"
     },
     {
      "id": "Eyyoxxy",
      "replyToId": "EyyHyTS",
      "authorPic": "https://randomuser.me/api/portraits/thumb/women/56.jpg",
      "text": "Fusce pharetra bibendum aliquam, arcu platea primis conubia, tempor faucibus.",
      "date": "2020-07-20T10:28:44.000+0000",
      "mood": 0,
      "topic": "G",
      "authorName": "Adrian Paige"
     },
     {
      "id": "EyyyyfS",
      "replyToId": "EHTHfSH",
      "authorPic": "https://randomuser.me/api/portraits/thumb/men/27.jpg",
      "text": "Mollis nostra mi litora lacus molestie, sagittis lorem consectetur orci.",
      "date": "2020-07-19T13:31:20.000+0000",
      "mood": 0,
      "topic": null,
      "authorName": "Amy Lewis"
     },
     {
      "id": "EyyHrTS",
      "replyToId": "EHrfSyo",
      "authorPic": "https://randomuser.me/api/portraits/thumb/men/10.jpg",
      "text": "Enim tempor dolor integer enim aliquet, condimentum vestibulum blandit netus.",
      "date": "2020-07-19T06:54:26.000+0000",
      "mood": 2,
      "topic": "F",
      "authorName": "Christian Russell"
     },
     {
      "id": "EyyHyTS",
      "replyToId": "EHrfSyo",
      "authorPic": "https://randomuser.me/api/portraits/thumb/men/29.jpg",
      "text": "Fringilla curabitur urna faucibus lacus accumsan, viverra nam rutrum tortor.",
      "date": "2020-07-19T04:49:27.000+0000",
      "mood": 0,
      "topic": "E",
      "authorName": "Audrey Powell"
     },
     {
      "id": "EyHTyES",
      "replyToId": "EHrfSyo",
      "authorPic": "https://randomuser.me/api/portraits/thumb/men/11.jpg",
      "text": "Nibh amet accumsan class velit ad, tortor accumsan ac platea.",
      "date": "2020-07-18T10:12:50.000+0000",
      "mood": 0,
      "topic": "B",
      "authorName": "Michael Kerr"
     },
     {
      "id": "EyHfSrS",
      "replyToId": "EyHxPET",
      "authorPic": "https://randomuser.me/api/portraits/thumb/men/77.jpg",
      "text": "Risus nam consequat condimentum auctor netus, ac tellus ut aptent.",
      "date": "2020-07-18T08:57:54.000+0000",
      "mood": 0,
      "topic": null,
      "authorName": "Sally Hardacre"
     },
     {
      "id": "EyHfTSr",
      "replyToId": "EyHxPET",
      "authorPic": "https://randomuser.me/api/portraits/thumb/men/77.jpg",
      "text": "Faucibus proin sit donec, justo cras proin augue, torquent sit.",
      "date": "2020-07-18T08:42:15.000+0000",
      "mood": 1,
      "topic": "E",
      "authorName": "Sally Hardacre"
     },
     {
      "id": "EyHfEPS",
      "replyToId": "EyHxPET",
      "authorPic": "https://randomuser.me/api/portraits/thumb/men/27.jpg",
      "text": "Mi vivamus lobortis senectus orci aliquam etiam hac pretium enim, class placerat commodo luctus ad elit justo ultrices.",
      "date": "2020-07-18T06:40:13.000+0000",
      "mood": 1,
      "topic": "F",
      "authorName": "Amy Lewis"
     },
     {
      "id": "EyHforT",
      "replyToId": "EyHxPET",
      "authorPic": "https://randomuser.me/api/portraits/thumb/men/77.jpg",
      "text": "Tellus mattis platea massa lacinia leo, integer mauris cubilia taciti.",
      "date": "2020-07-18T06:29:56.000+0000",
      "mood": 0,
      "topic": null,
      "authorName": "Sally Hardacre"
     },
     {
      "id": "EyHfPyH",
      "replyToId": "EyHxPET",
      "authorPic": "https://randomuser.me/api/portraits/thumb/men/77.jpg",
      "text": "Scelerisque tempus amet nulla morbi feugiat, pellentesque varius molestie egestas.",
      "date": "2020-07-18T06:25:19.000+0000",
      "mood": 2,
      "topic": "D",
      "authorName": "Sally Hardacre"
     },
     {
      "id": "EyHfPTP",
      "replyToId": "EyHxPET",
      "authorPic": "https://randomuser.me/api/portraits/thumb/men/27.jpg",
      "text": "Fusce class pharetra diam urna praesent, lobortis malesuada quam ut.",
      "date": "2020-07-18T05:52:37.000+0000",
      "mood": 0,
      "topic": "G",
      "authorName": "Amy Lewis"
     },
     {
      "id": "EyHfyoo",
      "replyToId": "EyHxEfo",
      "authorPic": "https://randomuser.me/api/portraits/thumb/men/33.jpg",
      "text": "Nec magna suspendisse morbi pharetra posuere pellentesque, auctor lectus ligula nullam etiam class, et fermentum sodales habitant velit.",
      "date": "2020-07-18T04:44:31.000+0000",
      "mood": 0,
      "topic": "F",
      "authorName": "Melanie Walker"
     },
     {
      "id": "EyHxEfo",
      "replyToId": "EHrfSyo",
      "authorPic": "https://randomuser.me/api/portraits/thumb/women/30.jpg",
      "text": "Blandit duis quisque malesuada per leo sagittis, dapibus augue fusce conubia morbi fusce, pellentesque blandit sagittis sollicitudin maecenas.",
      "date": "2020-07-17T19:19:17.000+0000",
      "mood": 2,
      "topic": null,
      "authorName": "Bella Hudson"
     },
     {
      "id": "EyHxPry",
      "replyToId": "EyHorxE",
      "authorPic": "https://randomuser.me/api/portraits/thumb/men/27.jpg",
      "text": "Dictumst scelerisque felis eget habitant sed, feugiat integer imperdiet cubilia.",
      "date": "2020-07-17T18:15:54.000+0000",
      "mood": 1,
      "topic": null,
      "authorName": "Amy Lewis"
     },
     {
      "id": "EyHxPET",
      "replyToId": "EHrfSyo",
      "authorPic": "https://randomuser.me/api/portraits/thumb/men/77.jpg",
      "text": "Habitasse nulla vel malesuada tortor accumsan, iaculis venenatis eu pharetra.",
      "date": "2020-07-17T17:34:32.000+0000",
      "mood": 0,
      "topic": "C",
      "authorName": "Sally Hardacre"
     },
     {
      "id": "EyHorxE",
      "replyToId": "EHrfSyo",
      "authorPic": "https://randomuser.me/api/portraits/thumb/women/30.jpg",
      "text": "Quis nibh curae facilisis amet vel eleifend, rhoncus vestibulum eu blandit placerat consectetur, orci mi aenean tincidunt porta.",
      "date": "2020-07-17T09:29:47.000+0000",
      "mood": 2,
      "topic": "C",
      "authorName": "Bella Hudson"
     },
     {
      "id": "EyHyxSE",
      "replyToId": "EHrfSyo",
      "authorPic": "https://randomuser.me/api/portraits/thumb/men/27.jpg",
      "text": "Eleifend sociosqu ipsum eleifend eu euismod, justo vehicula ac nunc.",
      "date": "2020-07-16T15:29:27.000+0000",
      "mood": 1,
      "topic": "A",
      "authorName": "Jake Duncan"
     },
     {
      "id": "EyHHfyo",
      "replyToId": "EHSxTEE",
      "authorPic": "https://randomuser.me/api/portraits/thumb/men/19.jpg",
      "text": "Dapibus quis interdum ac ornare vestibulum, elementum litora massa integer.",
      "date": "2020-07-16T10:02:10.000+0000",
      "mood": 2,
      "topic": null,
      "authorName": "Owen Sharp"
     },
     {
      "id": "EyHHxSr",
      "replyToId": "EHSxTEE",
      "authorPic": "https://randomuser.me/api/portraits/thumb/women/30.jpg",
      "text": "Bibendum velit fermentum sodales dictumst eu sed, aliquam phasellus odio elit tempus suscipit, lectus ante potenti per augue.",
      "date": "2020-07-16T09:52:28.000+0000",
      "mood": 0,
      "topic": null,
      "authorName": "Bella Hudson"
     },
     {
      "id": "EyHHxTx",
      "replyToId": "EHTrHPE",
      "authorPic": "https://randomuser.me/api/portraits/thumb/women/30.jpg",
      "text": "Massa lacus cursus nibh, blandit enim scelerisque neque, varius nibh.",
      "date": "2020-07-16T09:50:41.000+0000",
      "mood": 2,
      "topic": "G",
      "authorName": "Bella Hudson"
     },
     {
      "id": "EyHHxTo",
      "replyToId": "EHTyxEf",
      "authorPic": "https://randomuser.me/api/portraits/thumb/women/30.jpg",
      "text": "Elit a arcu class volutpat sodales, sagittis nullam mattis venenatis.",
      "date": "2020-07-16T09:50:07.000+0000",
      "mood": 0,
      "topic": "C",
      "authorName": "Bella Hudson"
     },
     {
      "id": "EyHHxTP",
      "replyToId": "EHTHfSH",
      "authorPic": "https://randomuser.me/api/portraits/thumb/women/30.jpg",
      "text": "Feugiat conubia eget etiam sollicitudin class, donec at curabitur massa.",
      "date": "2020-07-16T09:49:12.000+0000",
      "mood": 0,
      "topic": "F",
      "authorName": "Bella Hudson"
     },
     {
      "id": "EyHHxyE",
      "replyToId": "EHfSffx",
      "authorPic": "https://randomuser.me/api/portraits/thumb/women/30.jpg",
      "text": "Justo ad nulla mattis, quisque nam lectus ut, curae quam.",
      "date": "2020-07-16T09:48:27.000+0000",
      "mood": 1,
      "topic": "D",
      "authorName": "Bella Hudson"
     },
     {
      "id": "EyHHxfS",
      "replyToId": "EHfSrPr",
      "authorPic": "https://randomuser.me/api/portraits/thumb/women/30.jpg",
      "text": "Blandit quis nam diam, aliquam semper faucibus fames, non fringilla.",
      "date": "2020-07-16T09:46:58.000+0000",
      "mood": null,
      "topic": null,
      "authorName": "Bella Hudson"
     },
     {
      "id": "EHSxTEE",
      "replyToId": "EHrfSyo",
      "authorPic": "https://randomuser.me/api/portraits/thumb/women/11.jpg",
      "text": "Feugiat id curabitur diam elit quisque, iaculis ac nunc mollis.",
      "date": "2020-07-15T12:27:11.000+0000",
      "mood": 2,
      "topic": null,
      "authorName": "Andrea Forsyth"
     },
     {
      "id": "EHSyTyE",
      "replyToId": "EHTHfSH",
      "authorPic": "https://randomuser.me/api/portraits/thumb/men/28.jpg",
      "text": "Quam leo velit suspendisse orci hac suspendisse, etiam convallis curabitur duis malesuada dui, sit netus primis torquent litora.",
      "date": "2020-07-14T06:27:58.000+0000",
      "mood": 2,
      "topic": null,
      "authorName": "Julian Hughes"
     },
     {
      "id": "EHTfHEf",
      "replyToId": "EHrfSyo",
      "authorPic": "https://randomuser.me/api/portraits/thumb/women/21.jpg",
      "text": "Vulputate leo sagittis scelerisque curabitur aliquam dapibus, primis ligula vehicula orci metus nisi, eleifend per nunc non mollis.",
      "date": "2020-07-13T10:25:02.000+0000",
      "mood": 0,
      "topic": "E",
      "authorName": "Connor McGrath"
     },
     {
      "id": "EHTErHr",
      "replyToId": "EHTrrTr",
      "authorPic": "https://randomuser.me/api/portraits/thumb/women/27.jpg",
      "text": "Egestas convallis semper morbi quisque ultrices arcu, inceptos aliquet pulvinar etiam fermentum lorem, tincidunt felis praesent dictumst posuere.",
      "date": "2020-07-13T06:07:17.000+0000",
      "mood": 0,
      "topic": null,
      "authorName": "Colin Hamilton"
     },
     {
      "id": "EHTEyrT",
      "replyToId": "EHTHfSH",
      "authorPic": "https://randomuser.me/api/portraits/thumb/men/27.jpg",
      "text": "Mollis porttitor dolor nullam diam bibendum ultrices ornare, volutpat risus tortor ullamcorper platea dui. Leo blandit erat, mauris.",
      "date": "2020-07-13T06:01:22.000+0000",
      "mood": 1,
      "topic": "F",
      "authorName": "Amy Lewis"
     },
     {
      "id": "EHToSSS",
      "replyToId": "EHTrrTr",
      "authorPic": "https://randomuser.me/api/portraits/thumb/women/30.jpg",
      "text": "Consectetur phasellus praesent justo lacinia quis quisque himenaeos dolor purus, velit mauris luctus aenean lectus proin habitant rutrum.",
      "date": "2020-07-13T04:54:34.000+0000",
      "mood": 1,
      "topic": "A",
      "authorName": "Bella Hudson"
     },
     {
      "id": "EHToSST",
      "replyToId": "EHTPxoT",
      "authorPic": "https://randomuser.me/api/portraits/thumb/women/30.jpg",
      "text": "Felis velit etiam curabitur netus purus, interdum vestibulum per at.",
      "date": "2020-07-13T04:53:23.000+0000",
      "mood": 2,
      "topic": null,
      "authorName": "Bella Hudson"
     },
     {
      "id": "EHTEHoS",
      "replyToId": "EHrfSyo",
      "authorPic": "https://randomuser.me/api/portraits/thumb/women/30.jpg",
      "text": "Consequat mattis gravida phasellus iaculis etiam, euismod egestas pharetra himenaeos.",
      "date": "2020-07-13T04:51:19.000+0000",
      "mood": 0,
      "topic": "D",
      "authorName": "Bella Hudson"
     },
     {
      "id": "EHTPTyy",
      "replyToId": "EHrfSyo",
      "authorPic": "https://randomuser.me/api/portraits/thumb/women/64.jpg",
      "text": "Nec pharetra praesent in phasellus lacinia, erat nisl vulputate condimentum.",
      "date": "2020-07-12T14:53:38.000+0000",
      "mood": 2,
      "topic": "A",
      "authorName": "Trevor Hunter"
     },
     {
      "id": "EHTPTST",
      "replyToId": "EHrfSyo",
      "authorPic": "https://randomuser.me/api/portraits/thumb/women/64.jpg",
      "text": "Torquent blandit tempor suspendisse dolor eget justo, odio amet tempor pretium per volutpat, fermentum torquent aliquam ligula cursus.",
      "date": "2020-07-12T14:50:39.000+0000",
      "mood": 0,
      "topic": null,
      "authorName": "Trevor Hunter"
     },
     {
      "id": "EHTPfHr",
      "replyToId": "EHTPxoT",
      "authorPic": "https://randomuser.me/api/portraits/thumb/men/89.jpg",
      "text": "Mattis aliquam rutrum aliquam, fringilla nunc feugiat dictumst, sagittis per.",
      "date": "2020-07-12T13:29:17.000+0000",
      "mood": 2,
      "topic": "E",
      "authorName": "Joan Roberts"
     },
     {
      "id": "EHTPxfE",
      "replyToId": "EHTPxoT",
      "authorPic": "https://randomuser.me/api/portraits/thumb/men/27.jpg",
      "text": "Tempor fringilla iaculis ipsum augue interdum, quisque cursus vitae arcu.",
      "date": "2020-07-12T13:13:32.000+0000",
      "mood": 0,
      "topic": "D",
      "authorName": "Amy Lewis"
     },
     {
      "id": "EHTPxoT",
      "replyToId": "EHrfSyo",
      "authorPic": "https://randomuser.me/api/portraits/thumb/men/16.jpg",
      "text": "Mollis aliquet curabitur facilisis pharetra nisl, lorem tellus pulvinar ligula.",
      "date": "2020-07-12T13:03:46.000+0000",
      "mood": 0,
      "topic": "B",
      "authorName": "Bernadette Black"
     },
     {
      "id": "EHTPHff",
      "replyToId": "EHTrHPE",
      "authorPic": "https://randomuser.me/api/portraits/thumb/men/27.jpg",
      "text": "Placerat curae fermentum mauris turpis mauris class, mi amet pharetra odio feugiat nullam, class urna viverra donec felis.",
      "date": "2020-07-12T09:38:43.000+0000",
      "mood": 0,
      "topic": null,
      "authorName": "Amy Lewis"
     },
     {
      "id": "EHTrSyS",
      "replyToId": "EHTrrTr",
      "authorPic": "https://randomuser.me/api/portraits/thumb/men/27.jpg",
      "text": "Sed porttitor sollicitudin leo nisl eleifend nam curae ullamcorper tristique, porta lobortis a aliquam vehicula ipsum consequat luctus.",
      "date": "2020-07-12T08:39:44.000+0000",
      "mood": 1,
      "topic": null,
      "authorName": "Amy Lewis"
     },
     {
      "id": "EHTrTTT",
      "replyToId": "EHTrrTr",
      "authorPic": "https://randomuser.me/api/portraits/thumb/women/27.jpg",
      "text": "Nam justo litora odio integer pellentesque, praesent accumsan diam urna.",
      "date": "2020-07-12T08:10:28.000+0000",
      "mood": 1,
      "topic": "E",
      "authorName": "Colin Hamilton"
     },
     {
      "id": "EHTrTrT",
      "replyToId": "EHTrrTr",
      "authorPic": "https://randomuser.me/api/portraits/thumb/men/27.jpg",
      "text": "Taciti aptent venenatis quam lacinia ut, justo massa pretium condimentum.",
      "date": "2020-07-12T08:05:07.000+0000",
      "mood": 1,
      "topic": "D",
      "authorName": "Amy Lewis"
     },
     {
      "id": "EHTrPfT",
      "replyToId": "EHExxPS",
      "authorPic": "https://randomuser.me/api/portraits/thumb/women/30.jpg",
      "text": "Elementum aptent erat odio, dolor consectetur massa nulla, habitasse imperdiet.",
      "date": "2020-07-11T19:00:48.000+0000",
      "mood": 2,
      "topic": "E",
      "authorName": "Bella Hudson"
     },
     {
      "id": "EHTrooS",
      "replyToId": "EHEoTTS",
      "authorPic": "https://randomuser.me/api/portraits/thumb/women/30.jpg",
      "text": "Gravida dui convallis blandit nam tincidunt, lacus euismod torquent taciti.",
      "date": "2020-07-11T18:59:47.000+0000",
      "mood": 2,
      "topic": "F",
      "authorName": "Bella Hudson"
     },
     {
      "id": "EHTrPfx",
      "replyToId": "EHEyfTr",
      "authorPic": "https://randomuser.me/api/portraits/thumb/women/30.jpg",
      "text": "Est pellentesque commodo sapien quisque faucibus, massa phasellus nisi tempor.",
      "date": "2020-07-11T18:58:48.000+0000",
      "mood": 2,
      "topic": "F",
      "authorName": "Bella Hudson"
     },
     {
      "id": "EHTroox",
      "replyToId": "EHofSEx",
      "authorPic": "https://randomuser.me/api/portraits/thumb/women/30.jpg",
      "text": "Faucibus aliquam aenean risus, volutpat erat blandit tellus, conubia aenean.",
      "date": "2020-07-11T18:57:55.000+0000",
      "mood": 1,
      "topic": null,
      "authorName": "Bella Hudson"
     },
     {
      "id": "EHTrooo",
      "replyToId": "EHoHoTy",
      "authorPic": "https://randomuser.me/api/portraits/thumb/women/30.jpg",
      "text": "Ad aptent ante pretium dolor placerat suscipit semper sagittis dui, luctus elementum sapien adipiscing laoreet senectus dapibus primis.",
      "date": "2020-07-11T18:56:25.000+0000",
      "mood": 2,
      "topic": "F",
      "authorName": "Bella Hudson"
     },
     {
      "id": "EHTrPrr",
      "replyToId": "EHTrrTr",
      "authorPic": "https://randomuser.me/api/portraits/thumb/women/27.jpg",
      "text": "Sed purus vivamus ligula eleifend justo, vivamus potenti ut aliquam.",
      "date": "2020-07-11T18:39:15.000+0000",
      "mood": 0,
      "topic": "B",
      "authorName": "Colin Hamilton"
     },
     {
      "id": "EHTrPEP",
      "replyToId": "EHTrrTr",
      "authorPic": "https://randomuser.me/api/portraits/thumb/men/27.jpg",
      "text": "Nunc viverra sem justo dictumst ornare posuere, ornare congue curabitur nostra sagittis proin, feugiat vivamus dolor sapien nunc.",
      "date": "2020-07-11T18:28:43.000+0000",
      "mood": null,
      "topic": "G",
      "authorName": "Amy Lewis"
     },
     {
      "id": "EHTrrTr",
      "replyToId": "EHrfSyo",
      "authorPic": "https://randomuser.me/api/portraits/thumb/women/27.jpg",
      "text": "Litora odio mattis purus neque sagittis, condimentum potenti condimentum nisi.",
      "date": "2020-07-11T18:09:39.000+0000",
      "mood": 0,
      "topic": "G",
      "authorName": "Colin Hamilton"
     },
     {
      "id": "EHTrHPE",
      "replyToId": "EHrfSyo",
      "authorPic": "https://randomuser.me/api/portraits/thumb/women/67.jpg",
      "text": "Consectetur per turpis sed ultricies rutrum aliquam, torquent integer amet quisque sed diam, malesuada cursus vivamus consectetur at.",
      "date": "2020-07-11T16:13:25.000+0000",
      "mood": 2,
      "topic": "B",
      "authorName": "Elizabeth Abraham"
     },
     {
      "id": "EHTyxTy",
      "replyToId": "EHTyxEf",
      "authorPic": "https://randomuser.me/api/portraits/thumb/men/27.jpg",
      "text": "Sit pharetra massa condimentum malesuada taciti, quam elit sem vel.",
      "date": "2020-07-11T13:44:17.000+0000",
      "mood": 2,
      "topic": "F",
      "authorName": "Amy Lewis"
     },
     {
      "id": "EHTyxrE",
      "replyToId": "EHrfSyo",
      "authorPic": "https://randomuser.me/api/portraits/thumb/women/58.jpg",
      "text": "Nisi habitasse rhoncus phasellus, quisque semper himenaeos aenean, lectus nullam.",
      "date": "2020-07-11T13:29:02.000+0000",
      "mood": 2,
      "topic": "F",
      "authorName": "Ava Hill"
     },
     {
      "id": "EHTyxEf",
      "replyToId": "EHrfSyo",
      "authorPic": "https://randomuser.me/api/portraits/thumb/men/23.jpg",
      "text": "Sollicitudin himenaeos dolor sapien taciti dictumst, quam eleifend lobortis litora.",
      "date": "2020-07-11T13:21:08.000+0000",
      "mood": 2,
      "topic": null,
      "authorName": "Ian Arnold"
     },
     {
      "id": "EHTyHxy",
      "replyToId": "EHEoTTS",
      "authorPic": "https://randomuser.me/api/portraits/thumb/men/27.jpg",
      "text": "Pharetra sed quisque lobortis aenean sem, elit iaculis rhoncus turpis.",
      "date": "2020-07-11T09:34:28.000+0000",
      "mood": 0,
      "topic": "B",
      "authorName": "Amy Lewis"
     },
     {
      "id": "EHTHfSH",
      "replyToId": "EHrfSyo",
      "authorPic": "https://randomuser.me/api/portraits/thumb/women/83.jpg",
      "text": "Non quam et quisque orci habitant, lacus aliquam quam eleifend.",
      "date": "2020-07-11T08:48:22.000+0000",
      "mood": null,
      "topic": "C",
      "authorName": "Dylan Davidson"
     },
     {
      "id": "EHfSSoS",
      "replyToId": "EHrfSyo",
      "authorPic": "https://randomuser.me/api/portraits/thumb/women/74.jpg",
      "text": "Elit mauris aenean habitant mattis aliquam, augue nisi purus aenean.",
      "date": "2020-07-10T18:50:59.000+0000",
      "mood": 0,
      "topic": "B",
      "authorName": "Claire Lambert"
     },
     {
      "id": "EHfSTfE",
      "replyToId": "EHfSffx",
      "authorPic": "https://randomuser.me/api/portraits/thumb/women/53.jpg",
      "text": "Dictumst elit habitasse tempor velit curabitur, ultricies curabitur varius convallis.",
      "date": "2020-07-10T17:51:31.000+0000",
      "mood": 0,
      "topic": "B",
      "authorName": "Lily Cameron"
     },
     {
      "id": "EHfSfTT",
      "replyToId": "EHfSffx",
      "authorPic": "https://randomuser.me/api/portraits/thumb/men/27.jpg",
      "text": "Eu praesent faucibus morbi etiam fermentum, quam ac libero vehicula.",
      "date": "2020-07-10T17:45:09.000+0000",
      "mood": 0,
      "topic": "D",
      "authorName": "Amy Lewis"
     },
     {
      "id": "EHfSffx",
      "replyToId": "EHrfSyo",
      "authorPic": "https://randomuser.me/api/portraits/thumb/women/53.jpg",
      "text": "Vulputate accumsan eu porttitor platea velit, quisque dictum in tellus.",
      "date": "2020-07-10T17:36:20.000+0000",
      "mood": 1,
      "topic": "B",
      "authorName": "Lily Cameron"
     },
     {
      "id": "EHfSPTH",
      "replyToId": "EHfSrPr",
      "authorPic": "https://randomuser.me/api/portraits/thumb/men/27.jpg",
      "text": "Bibendum per tincidunt placerat cubilia nibh, fusce fames amet phasellus.",
      "date": "2020-07-10T15:10:22.000+0000",
      "mood": 2,
      "topic": "B",
      "authorName": "Amy Lewis"
     },
     {
      "id": "EHfSrPr",
      "replyToId": "EHrfSyo",
      "authorPic": "https://randomuser.me/api/portraits/thumb/men/81.jpg",
      "text": "Justo fringilla massa facilisis pharetra vitae laoreet, nostra fames nibh purus porta aptent, tortor aptent sapien quisque varius.",
      "date": "2020-07-10T14:44:55.000+0000",
      "mood": 0,
      "topic": "C",
      "authorName": "Victor Jackson"
     },
     {
      "id": "EHfSyoS",
      "replyToId": "EHrfSyo",
      "authorPic": "https://randomuser.me/api/portraits/thumb/men/72.jpg",
      "text": "Consequat dapibus rutrum odio donec cursus, pellentesque est senectus pharetra.",
      "date": "2020-07-10T13:49:26.000+0000",
      "mood": 0,
      "topic": "C",
      "authorName": "Zoe Campbell"
     },
     {
      "id": "EHfTPTo",
      "replyToId": "EHffrPo",
      "authorPic": "https://randomuser.me/api/portraits/thumb/women/30.jpg",
      "text": "Netus curabitur purus placerat porttitor inceptos, faucibus sit purus libero.",
      "date": "2020-07-10T10:51:33.000+0000",
      "mood": 0,
      "topic": null,
      "authorName": "Bella Hudson"
     },
     {
      "id": "EHfTPTP",
      "replyToId": "EHfxPTH",
      "authorPic": "https://randomuser.me/api/portraits/thumb/women/30.jpg",
      "text": "Venenatis massa a taciti ante commodo, habitant vitae dui consequat.",
      "date": "2020-07-10T10:51:05.000+0000",
      "mood": 0,
      "topic": "C",
      "authorName": "Bella Hudson"
     },
     {
      "id": "EHffrPo",
      "replyToId": "EHrfSyo",
      "authorPic": "https://randomuser.me/api/portraits/thumb/women/34.jpg",
      "text": "Himenaeos vulputate aptent feugiat sed etiam, semper aenean habitasse risus.",
      "date": "2020-07-10T06:13:46.000+0000",
      "mood": 0,
      "topic": null,
      "authorName": "Deirdre Dickens"
     },
     {
      "id": "EHfxPTH",
      "replyToId": "EHrfSyo",
      "authorPic": "https://randomuser.me/api/portraits/thumb/men/34.jpg",
      "text": "Pharetra quam facilisis ut, lorem metus suspendisse per, eget potenti.",
      "date": "2020-07-09T18:01:56.000+0000",
      "mood": 2,
      "topic": "E",
      "authorName": "Ruth Randall"
     },
     {
      "id": "EHfPyfH",
      "replyToId": "EHfHExT",
      "authorPic": "https://randomuser.me/api/portraits/thumb/women/30.jpg",
      "text": "Cursus magna at fusce turpis proin quisque, hendrerit vulputate condimentum aenean tempus ligula, eget augue ante laoreet curae.",
      "date": "2020-07-09T08:37:32.000+0000",
      "mood": 1,
      "topic": "B",
      "authorName": "Bella Hudson"
     },
     {
      "id": "EHfPyxx",
      "replyToId": "EHrfSyo",
      "authorPic": "https://randomuser.me/api/portraits/thumb/women/30.jpg",
      "text": "Rutrum tortor euismod odio sem habitant nunc facilisis aliquam diam, vestibulum ut ipsum praesent hac magna condimentum rhoncus.",
      "date": "2020-07-09T08:35:53.000+0000",
      "mood": 2,
      "topic": null,
      "authorName": "Bella Hudson"
     },
     {
      "id": "EHfrfPP",
      "replyToId": "EHfHExT",
      "authorPic": "https://randomuser.me/api/portraits/thumb/men/63.jpg",
      "text": "Nisi litora diam id aliquam est arcu sem laoreet aliquam, arcu inceptos accumsan sem nibh hendrerit faucibus dictumst.",
      "date": "2020-07-09T07:48:24.000+0000",
      "mood": 0,
      "topic": "E",
      "authorName": "Steven Miller"
     },
     {
      "id": "EHfrrHT",
      "replyToId": "EHfHExT",
      "authorPic": "https://randomuser.me/api/portraits/thumb/men/27.jpg",
      "text": "Dui magna lacinia venenatis conubia lacinia nisl ultricies etiam nullam, nisl tellus hendrerit pellentesque luctus vitae euismod fames.",
      "date": "2020-07-09T05:42:16.000+0000",
      "mood": 2,
      "topic": "G",
      "authorName": "Amy Lewis"
     },
     {
      "id": "EHfyPxS",
      "replyToId": "EHrTTHf",
      "authorPic": "https://randomuser.me/api/portraits/thumb/women/30.jpg",
      "text": "Cursus libero tempus iaculis augue amet, duis et felis platea.",
      "date": "2020-07-08T17:22:49.000+0000",
      "mood": 2,
      "topic": "G",
      "authorName": "Bella Hudson"
     },
     {
      "id": "EHfyPxE",
      "replyToId": "EHPxEoT",
      "authorPic": "https://randomuser.me/api/portraits/thumb/women/30.jpg",
      "text": "Mi et leo sed sollicitudin dolor, nisl turpis etiam commodo.",
      "date": "2020-07-08T17:21:49.000+0000",
      "mood": null,
      "topic": "E",
      "authorName": "Bella Hudson"
     },
     {
      "id": "EHfyPyE",
      "replyToId": "EHPTTof",
      "authorPic": "https://randomuser.me/api/portraits/thumb/women/30.jpg",
      "text": "Sagittis potenti dolor elementum duis pretium, sagittis nullam hendrerit sollicitudin.",
      "date": "2020-07-08T17:20:57.000+0000",
      "mood": 2,
      "topic": "F",
      "authorName": "Bella Hudson"
     },
     {
      "id": "EHfyPyy",
      "replyToId": "EHPTfHE",
      "authorPic": "https://randomuser.me/api/portraits/thumb/women/30.jpg",
      "text": "Sodales aliquam curabitur purus fermentum nam, ac curae mattis facilisis.",
      "date": "2020-07-08T17:20:06.000+0000",
      "mood": 1,
      "topic": null,
      "authorName": "Bella Hudson"
     },
     {
      "id": "EHfyPHT",
      "replyToId": "EHPTErx",
      "authorPic": "https://randomuser.me/api/portraits/thumb/women/30.jpg",
      "text": "Aliquam at odio est sodales ut fermentum, hac pellentesque lorem fermentum diam est, eget viverra vivamus donec aenean.",
      "date": "2020-07-08T17:19:11.000+0000",
      "mood": null,
      "topic": null,
      "authorName": "Bella Hudson"
     },
     {
      "id": "EHfyPxH",
      "replyToId": "EHrfSEH",
      "authorPic": "https://randomuser.me/api/portraits/thumb/women/30.jpg",
      "text": "Lobortis luctus nec aliquam, potenti purus nostra auctor, vel porta.",
      "date": "2020-07-08T17:18:08.000+0000",
      "mood": 0,
      "topic": null,
      "authorName": "Bella Hudson"
     },
     {
      "id": "EHfyPES",
      "replyToId": "EHPoTEH",
      "authorPic": "https://randomuser.me/api/portraits/thumb/women/30.jpg",
      "text": "Nisl proin sapien dapibus curabitur luctus, tempor sed ornare curabitur.",
      "date": "2020-07-08T17:17:13.000+0000",
      "mood": 0,
      "topic": "B",
      "authorName": "Bella Hudson"
     },
     {
      "id": "EHfyPEE",
      "replyToId": "EHPPHTy",
      "authorPic": "https://randomuser.me/api/portraits/thumb/women/30.jpg",
      "text": "Habitant litora ut vel vulputate ut, ultricies at sagittis lacinia.",
      "date": "2020-07-08T17:16:29.000+0000",
      "mood": 0,
      "topic": "D",
      "authorName": "Bella Hudson"
     },
     {
      "id": "EHfyPHo",
      "replyToId": "EHPSEof",
      "authorPic": "https://randomuser.me/api/portraits/thumb/women/30.jpg",
      "text": "Cras nisi netus iaculis per tortor, aliquam odio class molestie.",
      "date": "2020-07-08T17:15:44.000+0000",
      "mood": 2,
      "topic": "D",
      "authorName": "Bella Hudson"
     },
     {
      "id": "EHfyPHr",
      "replyToId": "EHoxrfx",
      "authorPic": "https://randomuser.me/api/portraits/thumb/women/30.jpg",
      "text": "Sociosqu ultrices augue duis congue nisi, ut lobortis dolor porttitor.",
      "date": "2020-07-08T17:14:04.000+0000",
      "mood": 2,
      "topic": null,
      "authorName": "Bella Hudson"
     },
     {
      "id": "EHfyPEy",
      "replyToId": "EHxrHHS",
      "authorPic": "https://randomuser.me/api/portraits/thumb/women/30.jpg",
      "text": "Aliquam senectus orci litora fames tellus, hendrerit duis cubilia vel.",
      "date": "2020-07-08T17:13:10.000+0000",
      "mood": 2,
      "topic": "C",
      "authorName": "Bella Hudson"
     },
     {
      "id": "EHfyrSS",
      "replyToId": "EHxyHyE",
      "authorPic": "https://randomuser.me/api/portraits/thumb/women/30.jpg",
      "text": "Massa ornare cubilia malesuada, purus bibendum tempus auctor, et ullamcorper.",
      "date": "2020-07-08T17:12:21.000+0000",
      "mood": null,
      "topic": "D",
      "authorName": "Bella Hudson"
     },
     {
      "id": "EHfyrSf",
      "replyToId": "EHETESf",
      "authorPic": "https://randomuser.me/api/portraits/thumb/women/30.jpg",
      "text": "Neque praesent nibh integer pulvinar suspendisse, urna aliquet libero lobortis.",
      "date": "2020-07-08T17:11:21.000+0000",
      "mood": 0,
      "topic": "A",
      "authorName": "Bella Hudson"
     },
     {
      "id": "EHfyPof",
      "replyToId": "EHfHExT",
      "authorPic": "https://randomuser.me/api/portraits/thumb/women/30.jpg",
      "text": "Libero nulla vivamus feugiat fusce nostra, arcu odio lorem neque.",
      "date": "2020-07-08T17:09:34.000+0000",
      "mood": 0,
      "topic": "D",
      "authorName": "Bella Hudson"
     },
     {
      "id": "EHfHExT",
      "replyToId": "EHrfSyo",
      "authorPic": "https://randomuser.me/api/portraits/thumb/women/74.jpg",
      "text": "Phasellus aenean vitae aenean sollicitudin felis, turpis consectetur vestibulum ut.",
      "date": "2020-07-08T13:51:04.000+0000",
      "mood": 1,
      "topic": "E",
      "authorName": "Jane Peters"
     },
     {
      "id": "EHfHEoy",
      "replyToId": "EHrfSyo",
      "authorPic": "https://randomuser.me/api/portraits/thumb/women/30.jpg",
      "text": "Dictumst faucibus vulputate sociosqu curabitur maecenas, ornare platea interdum dapibus.",
      "date": "2020-07-08T13:32:36.000+0000",
      "mood": null,
      "topic": "G",
      "authorName": "Bella Hudson"
     },
     {
      "id": "EHfHoHP",
      "replyToId": "EHxfEHP",
      "authorPic": "https://randomuser.me/api/portraits/thumb/women/30.jpg",
      "text": "Tempor conubia sed curabitur quis eleifend, justo velit potenti felis.",
      "date": "2020-07-08T13:23:34.000+0000",
      "mood": 2,
      "topic": "A",
      "authorName": "Bella Hudson"
     },
     {
      "id": "EHfHoHy",
      "replyToId": "EHxfEfr",
      "authorPic": "https://randomuser.me/api/portraits/thumb/women/30.jpg",
      "text": "Nisl nulla eleifend auctor aliquam non, primis sapien risus sociosqu.",
      "date": "2020-07-08T13:22:48.000+0000",
      "mood": 0,
      "topic": null,
      "authorName": "Bella Hudson"
     },
     {
      "id": "EHfHPSS",
      "replyToId": "EHrfSyo",
      "authorPic": "https://randomuser.me/api/portraits/thumb/women/30.jpg",
      "text": "Amet eu lacus donec fames luctus suspendisse, mollis vel quisque vulputate volutpat senectus, rhoncus curabitur tempor class taciti.",
      "date": "2020-07-08T13:21:38.000+0000",
      "mood": 1,
      "topic": "E",
      "authorName": "Bella Hudson"
     },
     {
      "id": "EHfHHyf",
      "replyToId": "EHrfSyo",
      "authorPic": "https://randomuser.me/api/portraits/thumb/women/34.jpg",
      "text": "Vestibulum nostra imperdiet habitasse dolor laoreet turpis, mollis himenaeos rutrum taciti vulputate faucibus, commodo egestas fames elit orci.",
      "date": "2020-07-08T11:50:23.000+0000",
      "mood": 0,
      "topic": "C",
      "authorName": "Deirdre Dickens"
     },
     {
      "id": "EHfHyHH",
      "replyToId": "EHrfSyo",
      "authorPic": "https://randomuser.me/api/portraits/thumb/women/34.jpg",
      "text": "Orci conubia vestibulum nisi purus diam nostra vulputate in egestas, est sem consectetur torquent feugiat erat eleifend vivamus.",
      "date": "2020-07-08T11:49:22.000+0000",
      "mood": 1,
      "topic": null,
      "authorName": "Deirdre Dickens"
     },
     {
      "id": "EHxSxyf",
      "replyToId": "EHrfSyo",
      "authorPic": "https://randomuser.me/api/portraits/thumb/women/30.jpg",
      "text": "Consectetur elementum vel molestie tortor orci, duis sem eget odio.",
      "date": "2020-07-08T09:53:26.000+0000",
      "mood": 2,
      "topic": null,
      "authorName": "Bella Hudson"
     },
     {
      "id": "EHxfxEy",
      "replyToId": "EHxfEfr",
      "authorPic": "https://randomuser.me/api/portraits/thumb/men/27.jpg",
      "text": "Curae dapibus vel maecenas semper tristique, cras lobortis pellentesque fames.",
      "date": "2020-07-07T18:25:48.000+0000",
      "mood": 0,
      "topic": "E",
      "authorName": "Amy Lewis"
     },
     {
      "id": "EHxfEHE",
      "replyToId": "EHrfSyo",
      "authorPic": "https://randomuser.me/api/portraits/thumb/men/73.jpg",
      "text": "Consequat purus vehicula feugiat eu felis, elementum leo netus maecenas.",
      "date": "2020-07-07T18:15:49.000+0000",
      "mood": 0,
      "topic": "D",
      "authorName": "Chloe Harris"
     },
     {
      "id": "EHxfEHP",
      "replyToId": "EHrfSyo",
      "authorPic": "https://randomuser.me/api/portraits/thumb/men/73.jpg",
      "text": "Dolor tempor curabitur dolor felis nisl feugiat, malesuada massa laoreet suscipit ultricies dictumst, gravida ornare mattis luctus eros.",
      "date": "2020-07-07T18:13:43.000+0000",
      "mood": 0,
      "topic": "G",
      "authorName": "Chloe Harris"
     },
     {
      "id": "EHxfEfr",
      "replyToId": "EHrfSyo",
      "authorPic": "https://randomuser.me/api/portraits/thumb/men/73.jpg",
      "text": "Mauris elementum elit quam vivamus bibendum, maecenas cras iaculis aenean.",
      "date": "2020-07-07T18:11:28.000+0000",
      "mood": 2,
      "topic": null,
      "authorName": "Chloe Harris"
     },
     {
      "id": "EHxfofx",
      "replyToId": "EHrfSyo",
      "authorPic": "https://randomuser.me/api/portraits/thumb/women/88.jpg",
      "text": "Aliquet scelerisque sociosqu nostra metus placerat, egestas ullamcorper enim convallis.",
      "date": "2020-07-07T17:55:43.000+0000",
      "mood": 2,
      "topic": null,
      "authorName": "Molly Vance"
     },
     {
      "id": "EHxfyyx",
      "replyToId": "EHxoxEP",
      "authorPic": "https://randomuser.me/api/portraits/thumb/men/27.jpg",
      "text": "Vel vestibulum id turpis elit proin, amet aptent lorem sociosqu.",
      "date": "2020-07-07T15:41:15.000+0000",
      "mood": null,
      "topic": "C",
      "authorName": "Amy Lewis"
     },
     {
      "id": "EHxfyEx",
      "replyToId": "EHxPxrH",
      "authorPic": "https://randomuser.me/api/portraits/thumb/men/27.jpg",
      "text": "Inceptos dapibus vivamus ad justo vulputate lacus, elementum sollicitudin phasellus mi lacinia suscipit, arcu sit vitae aenean cubilia.",
      "date": "2020-07-07T15:26:30.000+0000",
      "mood": 2,
      "topic": "G",
      "authorName": "Amy Lewis"
     },
     {
      "id": "EHxxPEo",
      "replyToId": "EHxoxEP",
      "authorPic": "https://randomuser.me/api/portraits/thumb/women/23.jpg",
      "text": "Arcu taciti augue vitae ac dictum, sodales elementum dictumst feugiat.",
      "date": "2020-07-07T11:37:46.000+0000",
      "mood": 0,
      "topic": "A",
      "authorName": "Mary Lyman"
     },
     {
      "id": "EHxxPPT",
      "replyToId": "EHxPxrH",
      "authorPic": "https://randomuser.me/api/portraits/thumb/women/30.jpg",
      "text": "Suscipit eu dictum porttitor fermentum donec sodales, aliquam platea vivamus sagittis elit habitasse, lacinia gravida at condimentum dictum.",
      "date": "2020-07-07T11:32:02.000+0000",
      "mood": 1,
      "topic": "G",
      "authorName": "Bella Hudson"
     },
     {
      "id": "EHxEEPT",
      "replyToId": "EHxoxEP",
      "authorPic": "https://randomuser.me/api/portraits/thumb/men/27.jpg",
      "text": "Volutpat ultrices diam ad felis tristique, etiam odio adipiscing proin.",
      "date": "2020-07-07T10:45:15.000+0000",
      "mood": 1,
      "topic": "D",
      "authorName": "Amy Lewis"
     },
     {
      "id": "EHxoxEP",
      "replyToId": "EHrfSyo",
      "authorPic": "https://randomuser.me/api/portraits/thumb/men/85.jpg",
      "text": "Ac elementum mi aliquam eget mollis, aenean duis rhoncus mauris.",
      "date": "2020-07-07T10:29:33.000+0000",
      "mood": 2,
      "topic": null,
      "authorName": "Victoria Burgess"
     },
     {
      "id": "EHxPxrH",
      "replyToId": "EHrfSyo",
      "authorPic": "https://randomuser.me/api/portraits/thumb/women/74.jpg",
      "text": "Ipsum platea blandit pharetra curabitur nullam purus, pellentesque duis ultrices neque risus enim, lacus elit praesent inceptos leo.",
      "date": "2020-07-07T05:35:20.000+0000",
      "mood": 1,
      "topic": "A",
      "authorName": "Jane Peters"
     },
     {
      "id": "EHxPxyP",
      "replyToId": "EHrfSyo",
      "authorPic": "https://randomuser.me/api/portraits/thumb/women/77.jpg",
      "text": "Dui praesent quisque mattis id dictumst lacus fusce pretium vivamus, dictumst id lacus dictumst eros pulvinar inceptos pharetra.",
      "date": "2020-07-07T05:21:01.000+0000",
      "mood": null,
      "topic": "B",
      "authorName": "Felicity Underwood"
     },
     {
      "id": "EHxrESx",
      "replyToId": "EHrfSyo",
      "authorPic": "https://randomuser.me/api/portraits/thumb/men/70.jpg",
      "text": "Arcu magna venenatis auctor consequat integer, odio fermentum ornare nisi.",
      "date": "2020-07-06T15:16:40.000+0000",
      "mood": 0,
      "topic": null,
      "authorName": "Penelope Piper"
     },
     {
      "id": "EHxrPTS",
      "replyToId": "EHxrHHS",
      "authorPic": "https://randomuser.me/api/portraits/thumb/men/27.jpg",
      "text": "Cubilia pharetra ultrices aliquet vestibulum molestie, diam mi tellus curae.",
      "date": "2020-07-06T14:39:58.000+0000",
      "mood": 2,
      "topic": "C",
      "authorName": "Amy Lewis"
     },
     {
      "id": "EHxrHHS",
      "replyToId": "EHrfSyo",
      "authorPic": "https://randomuser.me/api/portraits/thumb/women/8.jpg",
      "text": "Lobortis litora a rutrum accumsan venenatis mauris tempor adipiscing velit, lacinia sed senectus augue rutrum duis fames augue.",
      "date": "2020-07-06T13:26:00.000+0000",
      "mood": 2,
      "topic": "A",
      "authorName": "Jessica Wilson"
     },
     {
      "id": "EHxyHyE",
      "replyToId": "EHrfSyo",
      "authorPic": "https://randomuser.me/api/portraits/thumb/men/25.jpg",
      "text": "Ad congue proin potenti elit eu, lobortis libero curabitur semper.",
      "date": "2020-07-06T10:43:46.000+0000",
      "mood": 2,
      "topic": "A",
      "authorName": "Alexander Reid"
     },
     {
      "id": "EHxHPHo",
      "replyToId": "EHrfSyo",
      "authorPic": "https://randomuser.me/api/portraits/thumb/women/49.jpg",
      "text": "Elit nulla platea duis sagittis vulputate, habitasse justo pharetra ullamcorper.",
      "date": "2020-07-06T08:52:51.000+0000",
      "mood": 0,
      "topic": null,
      "authorName": "Liam Wilkins"
     },
     {
      "id": "EHxHrPT",
      "replyToId": "EHrfSyo",
      "authorPic": "https://randomuser.me/api/portraits/thumb/women/68.jpg",
      "text": "Ultrices quisque scelerisque dolor, est netus aptent ultrices, ipsum mauris.",
      "date": "2020-07-06T08:23:32.000+0000",
      "mood": 1,
      "topic": "A",
      "authorName": "Emma Bond"
     },
     {
      "id": "EHESoHE",
      "replyToId": "EHETESf",
      "authorPic": "https://randomuser.me/api/portraits/thumb/men/27.jpg",
      "text": "Fames pharetra erat commodo facilisis blandit, iaculis urna primis tempus.",
      "date": "2020-07-06T04:45:08.000+0000",
      "mood": 1,
      "topic": null,
      "authorName": "Amy Lewis"
     },
     {
      "id": "EHETESf",
      "replyToId": "EHrfSyo",
      "authorPic": "https://randomuser.me/api/portraits/thumb/women/93.jpg",
      "text": "Quis proin purus id morbi lacinia, congue malesuada tortor sapien.",
      "date": "2020-07-05T17:48:41.000+0000",
      "mood": 0,
      "topic": null,
      "authorName": "Brian Sanderson"
     },
     {
      "id": "EHEfxxy",
      "replyToId": "EHrfSEH",
      "authorPic": "https://randomuser.me/api/portraits/thumb/men/27.jpg",
      "text": "Laoreet platea pharetra fames lorem dictum, velit elementum nostra primis.",
      "date": "2020-07-05T11:39:53.000+0000",
      "mood": 0,
      "topic": "D",
      "authorName": "Amy Lewis"
     },
     {
      "id": "EHEfHTy",
      "replyToId": "EHoHoTy",
      "authorPic": "https://randomuser.me/api/portraits/thumb/men/27.jpg",
      "text": "Ut aliquam ante duis curabitur blandit tempor, integer vestibulum fusce vulputate aliquet cursus, magna quisque tempor elementum vivamus.",
      "date": "2020-07-05T09:24:31.000+0000",
      "mood": 1,
      "topic": "E",
      "authorName": "Amy Lewis"
     },
     {
      "id": "EHExxPS",
      "replyToId": "EHrfSyo",
      "authorPic": "https://randomuser.me/api/portraits/thumb/men/12.jpg",
      "text": "Bibendum nunc iaculis duis vulputate euismod, condimentum nunc pulvinar lacus.",
      "date": "2020-07-05T04:48:28.000+0000",
      "mood": null,
      "topic": null,
      "authorName": "Rachel Clark"
     },
     {
      "id": "EHEEoEr",
      "replyToId": "EHEoSxy",
      "authorPic": "https://randomuser.me/api/portraits/thumb/men/27.jpg",
      "text": "Ut eu ornare vel viverra curabitur, et aenean donec semper.",
      "date": "2020-07-04T12:54:28.000+0000",
      "mood": null,
      "topic": null,
      "authorName": "Amy Lewis"
     },
     {
      "id": "EHEoSxy",
      "replyToId": "EHrfSyo",
      "authorPic": "https://randomuser.me/api/portraits/thumb/women/18.jpg",
      "text": "Donec elit duis gravida litora arcu, sapien ad lobortis bibendum.",
      "date": "2020-07-04T10:18:33.000+0000",
      "mood": 0,
      "topic": "G",
      "authorName": "Hannah Martin"
     },
     {
      "id": "EHEoTTS",
      "replyToId": "EHrfSyo",
      "authorPic": "https://randomuser.me/api/portraits/thumb/women/83.jpg",
      "text": "Non varius quisque duis orci sodales, senectus posuere habitasse augue.",
      "date": "2020-07-04T09:31:56.000+0000",
      "mood": 1,
      "topic": "B",
      "authorName": "Wanda Wright"
     },
     {
      "id": "EHEoyEH",
      "replyToId": "EHrfSyo",
      "authorPic": "https://randomuser.me/api/portraits/thumb/women/65.jpg",
      "text": "Felis mollis primis mauris vehicula sagittis, erat mi cras lorem.",
      "date": "2020-07-03T19:41:38.000+0000",
      "mood": 0,
      "topic": "B",
      "authorName": "Carl Mackay"
     },
     {
      "id": "EHErPyH",
      "replyToId": "EHorPxo",
      "authorPic": "https://randomuser.me/api/portraits/thumb/women/6.jpg",
      "text": "Quisque cras mattis aenean eget nullam, nostra quisque phasellus class.",
      "date": "2020-07-03T10:46:46.000+0000",
      "mood": 2,
      "topic": "D",
      "authorName": "Julia Quinn"
     },
     {
      "id": "EHEryxy",
      "replyToId": "EHoxrfx",
      "authorPic": "https://randomuser.me/api/portraits/thumb/men/27.jpg",
      "text": "Fermentum scelerisque mattis lacinia ut posuere magna, tempor condimentum donec ac lorem ultricies, curabitur eu curabitur primis rutrum.",
      "date": "2020-07-03T09:49:33.000+0000",
      "mood": null,
      "topic": "E",
      "authorName": "Amy Lewis"
     },
     {
      "id": "EHEySoo",
      "replyToId": "EHEyfTr",
      "authorPic": "https://randomuser.me/api/portraits/thumb/men/27.jpg",
      "text": "Et pretium hac nibh quis molestie semper vel suscipit ut, facilisis est libero proin pharetra ante non vestibulum.",
      "date": "2020-07-03T08:53:00.000+0000",
      "mood": 0,
      "topic": null,
      "authorName": "Amy Lewis"
     },
     {
      "id": "EHEyTSf",
      "replyToId": "EHEyfTr",
      "authorPic": "https://randomuser.me/api/portraits/thumb/women/16.jpg",
      "text": "Hac purus ultricies nam, non taciti felis integer, volutpat etiam.",
      "date": "2020-07-03T08:51:21.000+0000",
      "mood": 2,
      "topic": "E",
      "authorName": "Carolyn Oliver"
     },
     {
      "id": "EHEyTSo",
      "replyToId": "EHEyfTr",
      "authorPic": "https://randomuser.me/api/portraits/thumb/men/27.jpg",
      "text": "Interdum donec viverra arcu tempus praesent, dapibus varius urna porttitor.",
      "date": "2020-07-03T08:49:35.000+0000",
      "mood": 2,
      "topic": "D",
      "authorName": "Amy Lewis"
     },
     {
      "id": "EHEyfTr",
      "replyToId": "EHrfSyo",
      "authorPic": "https://randomuser.me/api/portraits/thumb/women/16.jpg",
      "text": "Lacus vivamus eu congue amet sit, potenti bibendum sociosqu gravida.",
      "date": "2020-07-03T08:23:38.000+0000",
      "mood": 0,
      "topic": "G",
      "authorName": "Carolyn Oliver"
     },
     {
      "id": "EHoSfof",
      "replyToId": "EHrfSyo",
      "authorPic": "https://randomuser.me/api/portraits/thumb/women/55.jpg",
      "text": "Lectus lorem cursus risus litora sagittis, semper nam est egestas.",
      "date": "2020-07-02T15:47:59.000+0000",
      "mood": 2,
      "topic": "E",
      "authorName": "Megan Alsop"
     },
     {
      "id": "EHoSHTH",
      "replyToId": "EHoToTy",
      "authorPic": "https://randomuser.me/api/portraits/thumb/men/27.jpg",
      "text": "Tempus cubilia suscipit feugiat egestas varius, taciti at sollicitudin lacinia.",
      "date": "2020-07-02T12:53:31.000+0000",
      "mood": 1,
      "topic": null,
      "authorName": "Amy Lewis"
     },
     {
      "id": "EHoTxoT",
      "replyToId": "EHofSEx",
      "authorPic": "https://randomuser.me/api/portraits/thumb/men/27.jpg",
      "text": "Gravida commodo nisl habitasse eu inceptos, commodo rhoncus ornare semper.",
      "date": "2020-07-02T11:03:28.000+0000",
      "mood": 0,
      "topic": null,
      "authorName": "Amy Lewis"
     },
     {
      "id": "EHoToTy",
      "replyToId": "EHrfSyo",
      "authorPic": "https://randomuser.me/api/portraits/thumb/women/30.jpg",
      "text": "Bibendum lobortis egestas vel, maecenas condimentum tortor accumsan, libero blandit.",
      "date": "2020-07-02T10:20:20.000+0000",
      "mood": 2,
      "topic": "A",
      "authorName": "Bella Hudson"
     },
     {
      "id": "EHofSEx",
      "replyToId": "EHrfSyo",
      "authorPic": "https://randomuser.me/api/portraits/thumb/men/68.jpg",
      "text": "Dolor magna elementum sagittis torquent quis conubia, faucibus eget tempus suspendisse praesent nulla, dictumst adipiscing sollicitudin laoreet suscipit.",
      "date": "2020-07-02T08:30:46.000+0000",
      "mood": 1,
      "topic": null,
      "authorName": "Maria MacLeod"
     },
     {
      "id": "EHoxrfx",
      "replyToId": "EHrfSyo",
      "authorPic": "https://randomuser.me/api/portraits/thumb/women/33.jpg",
      "text": "Venenatis proin id laoreet ad nulla, mauris velit quisque pellentesque.",
      "date": "2020-07-01T14:56:08.000+0000",
      "mood": 0,
      "topic": null,
      "authorName": "Emily Young"
     },
     {
      "id": "EHooSoo",
      "replyToId": "EHrfSyo",
      "authorPic": "https://randomuser.me/api/portraits/thumb/men/81.jpg",
      "text": "Nostra vitae quis ligula donec mauris feugiat adipiscing commodo neque, habitant ultrices lectus primis neque eu nunc in.",
      "date": "2020-07-01T11:23:58.000+0000",
      "mood": null,
      "topic": "G",
      "authorName": "Austin Howard"
     },
     {
      "id": "EHooEPf",
      "replyToId": "EHoHoTy",
      "authorPic": "https://randomuser.me/api/portraits/thumb/men/86.jpg",
      "text": "Fames tincidunt ac nec ut cras, iaculis ad nisi vitae.",
      "date": "2020-07-01T09:26:44.000+0000",
      "mood": 0,
      "topic": "B",
      "authorName": "Joseph Springer"
     },
     {
      "id": "EHorPSr",
      "replyToId": "EHrfSyo",
      "authorPic": "https://randomuser.me/api/portraits/thumb/women/68.jpg",
      "text": "Duis justo ut fringilla tortor bibendum, massa purus nisi volutpat.",
      "date": "2020-06-30T19:21:22.000+0000",
      "mood": 0,
      "topic": "G",
      "authorName": "Matt Mills"
     },
     {
      "id": "EHorPxo",
      "replyToId": "EHrfSyo",
      "authorPic": "https://randomuser.me/api/portraits/thumb/women/14.jpg",
      "text": "Placerat vulputate cursus elementum congue ut, pulvinar malesuada lacus tristique.",
      "date": "2020-06-30T19:03:01.000+0000",
      "mood": 1,
      "topic": "G",
      "authorName": "Kimberly Terry"
     },
     {
      "id": "EHorrSP",
      "replyToId": "EHrfSyo",
      "authorPic": "https://randomuser.me/api/portraits/thumb/men/16.jpg",
      "text": "Senectus lacinia commodo elementum amet felis, sapien suscipit egestas fermentum.",
      "date": "2020-06-30T18:36:37.000+0000",
      "mood": 0,
      "topic": "A",
      "authorName": "Gordon Nolan"
     },
     {
      "id": "EHoryET",
      "replyToId": "EHrfSyo",
      "authorPic": "https://randomuser.me/api/portraits/thumb/women/9.jpg",
      "text": "Imperdiet orci nisl morbi lacus nibh orci, arcu ornare dolor nam eu ultrices, sem conubia aenean interdum quisque.",
      "date": "2020-06-30T18:02:55.000+0000",
      "mood": 2,
      "topic": "A",
      "authorName": "Sam Bailey"
     },
     {
      "id": "EHorHyP",
      "replyToId": "EHPTTof",
      "authorPic": "https://randomuser.me/api/portraits/thumb/men/27.jpg",
      "text": "Curae vivamus praesent eget justo ad, justo sed purus sociosqu.",
      "date": "2020-06-30T17:44:05.000+0000",
      "mood": 0,
      "topic": "D",
      "authorName": "Amy Lewis"
     },
     {
      "id": "EHorHHy",
      "replyToId": "EHPTTof",
      "authorPic": "https://randomuser.me/api/portraits/thumb/women/71.jpg",
      "text": "Curae lacinia bibendum dolor orci consequat, platea laoreet himenaeos consequat.",
      "date": "2020-06-30T17:39:17.000+0000",
      "mood": 1,
      "topic": null,
      "authorName": "Phil Gray"
     },
     {
      "id": "EHoySTf",
      "replyToId": "EHPTTof",
      "authorPic": "https://randomuser.me/api/portraits/thumb/men/27.jpg",
      "text": "Ac molestie habitant senectus, vitae ultricies mauris velit, porttitor purus.",
      "date": "2020-06-30T17:35:01.000+0000",
      "mood": 0,
      "topic": "F",
      "authorName": "Amy Lewis"
     },
     {
      "id": "EHoyfSf",
      "replyToId": "EHPTTof",
      "authorPic": "https://randomuser.me/api/portraits/thumb/women/71.jpg",
      "text": "Mauris semper praesent etiam dui pretium, habitasse ut orci platea.",
      "date": "2020-06-30T16:53:30.000+0000",
      "mood": 1,
      "topic": "B",
      "authorName": "Phil Gray"
     },
     {
      "id": "EHoyfSP",
      "replyToId": "EHPTTof",
      "authorPic": "https://randomuser.me/api/portraits/thumb/men/27.jpg",
      "text": "Metus lacinia habitant vitae aliquet est, lacus torquent sit quis.",
      "date": "2020-06-30T16:51:51.000+0000",
      "mood": 2,
      "topic": "E",
      "authorName": "Amy Lewis"
     },
     {
      "id": "EHoyfSH",
      "replyToId": "EHPTTof",
      "authorPic": "https://randomuser.me/api/portraits/thumb/women/71.jpg",
      "text": "Adipiscing ut duis pulvinar eros vitae, sodales malesuada duis potenti.",
      "date": "2020-06-30T16:49:48.000+0000",
      "mood": 2,
      "topic": "C",
      "authorName": "Phil Gray"
     },
     {
      "id": "EHoyffH",
      "replyToId": "EHPSEof",
      "authorPic": "https://randomuser.me/api/portraits/thumb/men/27.jpg",
      "text": "Lectus nisl nostra vitae sollicitudin neque, orci lacus duis blandit.",
      "date": "2020-06-30T16:38:42.000+0000",
      "mood": 0,
      "topic": "G",
      "authorName": "Amy Lewis"
     },
     {
      "id": "EHoyxSo",
      "replyToId": "EHPTfHE",
      "authorPic": "https://randomuser.me/api/portraits/thumb/men/27.jpg",
      "text": "Iaculis fames vehicula praesent congue mollis litora inceptos duis nibh, sem eu lobortis augue commodo facilisis eu sem.",
      "date": "2020-06-30T16:29:36.000+0000",
      "mood": 2,
      "topic": "D",
      "authorName": "Amy Lewis"
     },
     {
      "id": "EHoyfEH",
      "replyToId": "EHPTTof",
      "authorPic": "https://randomuser.me/api/portraits/thumb/men/27.jpg",
      "text": "Malesuada suspendisse tempus non odio dictumst, aliquam curae tempus ut.",
      "date": "2020-06-30T16:28:02.000+0000",
      "mood": 1,
      "topic": "A",
      "authorName": "Amy Lewis"
     },
     {
      "id": "EHoyEEf",
      "replyToId": "EHoHPTr",
      "authorPic": "https://randomuser.me/api/portraits/thumb/men/27.jpg",
      "text": "Platea accumsan placerat duis tellus condimentum, sagittis adipiscing tempus duis.",
      "date": "2020-06-30T14:53:30.000+0000",
      "mood": 0,
      "topic": "G",
      "authorName": "Amy Lewis"
     },
     {
      "id": "EHoHEoy",
      "replyToId": "EHrfSyo",
      "authorPic": "https://randomuser.me/api/portraits/thumb/men/14.jpg",
      "text": "Conubia lectus laoreet egestas mi consectetur, aenean leo proin feugiat.",
      "date": "2020-06-30T13:02:26.000+0000",
      "mood": 2,
      "topic": "F",
      "authorName": "Jan Lee"
     },
     {
      "id": "EHoHoTy",
      "replyToId": "EHrfSyo",
      "authorPic": "https://randomuser.me/api/portraits/thumb/women/30.jpg",
      "text": "Aenean est donec convallis urna felis, donec congue inceptos posuere.",
      "date": "2020-06-30T12:27:28.000+0000",
      "mood": 1,
      "topic": "E",
      "authorName": "Bella Hudson"
     },
     {
      "id": "EHoHoff",
      "replyToId": "EHoHHxf",
      "authorPic": "https://randomuser.me/api/portraits/thumb/women/82.jpg",
      "text": "Iaculis nibh non ligula sodales nibh, ultricies viverra donec pulvinar.",
      "date": "2020-06-30T12:25:25.000+0000",
      "mood": 2,
      "topic": "D",
      "authorName": "Rebecca Manning"
     },
     {
      "id": "EHoHPSH",
      "replyToId": "EHoHPTr",
      "authorPic": "https://randomuser.me/api/portraits/thumb/women/82.jpg",
      "text": "Enim bibendum non suscipit, quisque condimentum adipiscing a, odio vehicula.",
      "date": "2020-06-30T12:25:16.000+0000",
      "mood": 2,
      "topic": "C",
      "authorName": "Rebecca Manning"
     },
     {
      "id": "EHoHofE",
      "replyToId": "EHPTErx",
      "authorPic": "https://randomuser.me/api/portraits/thumb/women/82.jpg",
      "text": "Diam volutpat duis et rutrum justo, potenti enim varius arcu.",
      "date": "2020-06-30T12:24:40.000+0000",
      "mood": 1,
      "topic": "B",
      "authorName": "Rebecca Manning"
     },
     {
      "id": "EHoHofo",
      "replyToId": "EHPxEoT",
      "authorPic": "https://randomuser.me/api/portraits/thumb/women/82.jpg",
      "text": "Lobortis aliquet magna curae posuere aenean, dapibus ligula posuere facilisis.",
      "date": "2020-06-30T12:24:28.000+0000",
      "mood": 0,
      "topic": "D",
      "authorName": "Rebecca Manning"
     },
     {
      "id": "EHoHPTr",
      "replyToId": "EHrfSyo",
      "authorPic": "https://randomuser.me/api/portraits/thumb/men/23.jpg",
      "text": "Neque pellentesque ullamcorper dictumst vel inceptos, feugiat cursus cras viverra.",
      "date": "2020-06-30T12:17:00.000+0000",
      "mood": 0,
      "topic": null,
      "authorName": "Dorothy Rees"
     },
     {
      "id": "EHoHHxf",
      "replyToId": "EHrfSyo",
      "authorPic": "https://randomuser.me/api/portraits/thumb/men/7.jpg",
      "text": "Lobortis tempor mi pulvinar curae molestie, dictum lacus mattis curabitur.",
      "date": "2020-06-30T11:42:43.000+0000",
      "mood": 0,
      "topic": "D",
      "authorName": "Sean Cornish"
     },
     {
      "id": "EHPSTfS",
      "replyToId": "EHrfSyo",
      "authorPic": "https://randomuser.me/api/portraits/thumb/men/31.jpg",
      "text": "Nostra aliquam commodo nibh, volutpat augue eget amet, justo tellus.",
      "date": "2020-06-30T10:48:46.000+0000",
      "mood": null,
      "topic": "B",
      "authorName": "Diana Allan"
     },
     {
      "id": "EHPSffy",
      "replyToId": "EHrfSyo",
      "authorPic": "https://randomuser.me/api/portraits/thumb/men/63.jpg",
      "text": "Pulvinar tristique auctor dolor venenatis vestibulum, eros tempus consectetur quisque.",
      "date": "2020-06-30T10:28:34.000+0000",
      "mood": 0,
      "topic": "B",
      "authorName": "Stewart Parsons"
     },
     {
      "id": "EHPSEof",
      "replyToId": "EHrfSyo",
      "authorPic": "https://randomuser.me/api/portraits/thumb/women/15.jpg",
      "text": "Mollis lacus conubia lacus aliquet pharetra, auctor gravida litora facilisis.",
      "date": "2020-06-30T09:23:25.000+0000",
      "mood": 0,
      "topic": null,
      "authorName": "Lillian Gill"
     },
     {
      "id": "EHPTSSx",
      "replyToId": "EHPTErx",
      "authorPic": "https://randomuser.me/api/portraits/thumb/men/27.jpg",
      "text": "Class donec ut ornare condimentum convallis, in lectus cubilia placerat.",
      "date": "2020-06-30T06:41:54.000+0000",
      "mood": null,
      "topic": "E",
      "authorName": "Amy Lewis"
     },
     {
      "id": "EHPTTof",
      "replyToId": "EHrfSyo",
      "authorPic": "https://randomuser.me/api/portraits/thumb/women/71.jpg",
      "text": "Imperdiet inceptos volutpat ultrices vestibulum sagittis, quam pulvinar integer consequat.",
      "date": "2020-06-30T05:55:22.000+0000",
      "mood": 2,
      "topic": null,
      "authorName": "Phil Gray"
     },
     {
      "id": "EHPTfHE",
      "replyToId": "EHrfSyo",
      "authorPic": "https://randomuser.me/api/portraits/thumb/men/50.jpg",
      "text": "Quisque mi dapibus mauris tincidunt lacus accumsan sed class etiam, rhoncus posuere ante laoreet maecenas duis ipsum posuere.",
      "date": "2020-06-30T05:12:30.000+0000",
      "mood": null,
      "topic": "B",
      "authorName": "Faith Short"
     },
     {
      "id": "EHPTErx",
      "replyToId": "EHrfSyo",
      "authorPic": "https://randomuser.me/api/portraits/thumb/women/66.jpg",
      "text": "Quisque augue elit vel lorem proin aenean, conubia iaculis id aenean nullam est, aenean mauris sociosqu urna in.",
      "date": "2020-06-30T00:21:39.000+0000",
      "mood": 0,
      "topic": "B",
      "authorName": "Joe Ferguson"
     },
     {
      "id": "EHPxfTx",
      "replyToId": "EHPxEoT",
      "authorPic": "https://randomuser.me/api/portraits/thumb/men/27.jpg",
      "text": "Aenean dolor porta malesuada nulla convallis, est lacinia curabitur dapibus.",
      "date": "2020-06-29T13:14:46.000+0000",
      "mood": 2,
      "topic": "G",
      "authorName": "Amy Lewis"
     },
     {
      "id": "EHPxofS",
      "replyToId": "EHrfSyo",
      "authorPic": "https://randomuser.me/api/portraits/thumb/women/72.jpg",
      "text": "Non ligula fames dolor vel nulla vitae volutpat felis elit, elementum dictumst himenaeos ut mi eleifend ligula odio.",
      "date": "2020-06-29T12:14:03.000+0000",
      "mood": 1,
      "topic": null,
      "authorName": "Angela Watson"
     },
     {
      "id": "EHPxEEy",
      "replyToId": "EHPxEoT",
      "authorPic": "https://randomuser.me/api/portraits/thumb/women/25.jpg",
      "text": "Nisl velit netus pulvinar pellentesque et, donec lacinia per vivamus.",
      "date": "2020-06-29T12:13:31.000+0000",
      "mood": 2,
      "topic": "D",
      "authorName": "Sonia King"
     },
     {
      "id": "EHPxEoT",
      "replyToId": "EHrfSyo",
      "authorPic": "https://randomuser.me/api/portraits/thumb/women/25.jpg",
      "text": "Ullamcorper pharetra curabitur massa ornare sodales, vivamus rutrum porta habitasse.",
      "date": "2020-06-29T12:12:03.000+0000",
      "mood": 0,
      "topic": "E",
      "authorName": "Sonia King"
     },
     {
      "id": "EHPESTx",
      "replyToId": "EHrfSEH",
      "authorPic": "https://randomuser.me/api/portraits/thumb/women/62.jpg",
      "text": "Integer tristique tortor gravida est ut tempor, varius pulvinar libero urna leo orci, habitasse ornare viverra curabitur consequat.",
      "date": "2020-06-29T10:52:18.000+0000",
      "mood": 0,
      "topic": "C",
      "authorName": "Stephen Ball"
     },
     {
      "id": "EHPESEP",
      "replyToId": "EHrTTHf",
      "authorPic": "https://randomuser.me/api/portraits/thumb/men/27.jpg",
      "text": "Nibh erat etiam nisl volutpat auctor, fringilla posuere enim justo.",
      "date": "2020-06-29T10:39:13.000+0000",
      "mood": 0,
      "topic": null,
      "authorName": "Amy Lewis"
     },
     {
      "id": "EHPEoEf",
      "replyToId": "EHPErSy",
      "authorPic": "https://randomuser.me/api/portraits/thumb/men/27.jpg",
      "text": "Dapibus aenean ut condimentum, feugiat lacinia orci sociosqu, quisque vel.",
      "date": "2020-06-29T09:40:28.000+0000",
      "mood": 2,
      "topic": null,
      "authorName": "Amy Lewis"
     },
     {
      "id": "EHPErSy",
      "replyToId": "EHrfSyo",
      "authorPic": "https://randomuser.me/api/portraits/thumb/men/46.jpg",
      "text": "Sagittis aliquam ad facilisis duis quisque, cursus tortor porta habitant.",
      "date": "2020-06-29T09:25:04.000+0000",
      "mood": 0,
      "topic": "A",
      "authorName": "Madeleine Ross"
     },
     {
      "id": "EHPEHrT",
      "replyToId": "EHrfSEH",
      "authorPic": "https://randomuser.me/api/portraits/thumb/men/27.jpg",
      "text": "Condimentum risus per blandit, laoreet ante molestie torquent, lobortis arcu.",
      "date": "2020-06-29T08:48:04.000+0000",
      "mood": 1,
      "topic": "D",
      "authorName": "Amy Lewis"
     },
     {
      "id": "EHPEHHH",
      "replyToId": "EHPoTEH",
      "authorPic": "https://randomuser.me/api/portraits/thumb/men/27.jpg",
      "text": "Sed porttitor consectetur sem magna ultrices, pulvinar ornare neque justo.",
      "date": "2020-06-29T08:36:53.000+0000",
      "mood": 2,
      "topic": "D",
      "authorName": "Amy Lewis"
     },
     {
      "id": "EHPoTEH",
      "replyToId": "EHrfSyo",
      "authorPic": "https://randomuser.me/api/portraits/thumb/men/88.jpg",
      "text": "Lectus gravida mi phasellus ornare vivamus tristique vel a interdum, tincidunt malesuada eu vel aenean ligula ornare tellus.",
      "date": "2020-06-29T08:22:07.000+0000",
      "mood": 0,
      "topic": "D",
      "authorName": "Lucas Mitchell"
     },
     {
      "id": "EHPofro",
      "replyToId": "EHrfSEH",
      "authorPic": "https://randomuser.me/api/portraits/thumb/men/50.jpg",
      "text": "Quis nostra diam elementum nisl aliquam, egestas viverra nulla nam.",
      "date": "2020-06-29T08:13:08.000+0000",
      "mood": null,
      "topic": "B",
      "authorName": "Amelia Johnston"
     },
     {
      "id": "EHPooHo",
      "replyToId": "EHrfSEH",
      "authorPic": "https://randomuser.me/api/portraits/thumb/men/27.jpg",
      "text": "Amet convallis praesent habitant, nunc justo lobortis per, bibendum pellentesque.",
      "date": "2020-06-29T07:32:35.000+0000",
      "mood": 1,
      "topic": "C",
      "authorName": "Amy Lewis"
     },
     {
      "id": "EHPoyPy",
      "replyToId": "EHrfSEH",
      "authorPic": "https://randomuser.me/api/portraits/thumb/men/50.jpg",
      "text": "Purus euismod massa quis feugiat morbi, sit fusce viverra sollicitudin.",
      "date": "2020-06-29T06:50:45.000+0000",
      "mood": 0,
      "topic": "C",
      "authorName": "Amelia Johnston"
     },
     {
      "id": "EHPPHTy",
      "replyToId": "EHrfSyo",
      "authorPic": "https://randomuser.me/api/portraits/thumb/men/41.jpg",
      "text": "Vulputate senectus rhoncus molestie netus habitasse fermentum tristique ad sodales, netus taciti inceptos gravida dictumst sociosqu netus libero.",
      "date": "2020-06-28T18:48:03.000+0000",
      "mood": 2,
      "topic": null,
      "authorName": "Donna Newman"
     },
     {
      "id": "EHPrxxE",
      "replyToId": "EHrfSyo",
      "authorPic": "https://randomuser.me/api/portraits/thumb/women/87.jpg",
      "text": "Lobortis senectus amet libero proin inceptos, eget a gravida mattis.",
      "date": "2020-06-28T14:33:49.000+0000",
      "mood": 2,
      "topic": "G",
      "authorName": "Neil Hemmings"
     },
     {
      "id": "EHPyyPH",
      "replyToId": "EHrfSyo",
      "authorPic": "https://randomuser.me/api/portraits/thumb/men/43.jpg",
      "text": "Dolor arcu nisl porttitor, class taciti nisl sapien, ad praesent.",
      "date": "2020-06-28T05:38:26.000+0000",
      "mood": 0,
      "topic": "D",
      "authorName": "Cameron Blake"
     },
     {
      "id": "EHPHPry",
      "replyToId": "EHrfSEH",
      "authorPic": "https://randomuser.me/api/portraits/thumb/men/27.jpg",
      "text": "Ante convallis tempor pulvinar massa nulla, fusce interdum facilisis suscipit.",
      "date": "2020-06-27T15:38:12.000+0000",
      "mood": 1,
      "topic": "G",
      "authorName": "Amy Lewis"
     },
     {
      "id": "EHPHPyT",
      "replyToId": "EHrfSyo",
      "authorPic": "https://randomuser.me/api/portraits/thumb/women/17.jpg",
      "text": "Tellus curae etiam primis, lobortis nam lectus quam, faucibus vehicula.",
      "date": "2020-06-27T15:33:28.000+0000",
      "mood": 1,
      "topic": "F",
      "authorName": "Edward Fraser"
     },
     {
      "id": "EHPHyPx",
      "replyToId": "EHrfSyo",
      "authorPic": "https://randomuser.me/api/portraits/thumb/men/64.jpg",
      "text": "Feugiat tortor class in lacinia semper, tincidunt hac sodales quisque.",
      "date": "2020-06-27T13:08:06.000+0000",
      "mood": null,
      "topic": "A",
      "authorName": "Brandon Rutherford"
     },
     {
      "id": "EHrTTHf",
      "replyToId": "EHrfSyo",
      "authorPic": "https://randomuser.me/api/portraits/thumb/women/24.jpg",
      "text": "Est nisi praesent erat, imperdiet maecenas ac molestie, morbi laoreet.",
      "date": "2020-06-27T03:51:18.000+0000",
      "mood": 0,
      "topic": null,
      "authorName": "Alan Slater"
     },
     {
      "id": "EHrfSEH",
      "replyToId": "EHrfSyo",
      "authorPic": "https://randomuser.me/api/portraits/thumb/men/69.jpg",
      "text": "Eu ullamcorper dolor commodo hac posuere etiam sodales egestas libero, vestibulum nulla a consequat nostra sodales et rhoncus.",
      "date": "2020-06-26T16:04:26.000+0000",
      "mood": null,
      "topic": "C",
      "authorName": "Peter Paterson"
     },
     {
      "id": "EHrfSyo",
      "replyToId": null,
      "authorPic": "https://randomuser.me/api/portraits/thumb/men/27.jpg",
      "text": "Consequat ut pharetra tempor eros semper, conubia convallis commodo nisi.",
      "date": "2020-06-24T06:57:25.000+0000",
      "mood": null,
      "topic": "D",
      "authorName": "Amy Lewis"
     }
    ]
   }